Date,release,count
2021-08-26,buster,86
2021-08-26,stretch,1
2021-08-26,bullseye,1
2021-10-08,buster,86
2021-10-08,bullseye,4
2021-10-08,stretch,1
2021-11-11,buster,84
2021-11-11,bullseye,4
2021-11-11,stretch,1
2022-01-11,buster,77
2022-01-11,bullseye,12
