<?xml version="1.0" encoding="UTF-8" standalone="no"?>
<!DOCTYPE svg PUBLIC "-//W3C//DTD SVG 1.1//EN"
 "http://www.w3.org/Graphics/SVG/1.1/DTD/svg11.dtd">
<!-- Generated by graphviz version 2.40.1 (20161225.0304)
 -->
<!-- Title: ldap Pages: 1 -->
<svg width="3352pt" height="778pt"
 viewBox="0.00 0.00 3352.00 778.00" xmlns="http://www.w3.org/2000/svg" xmlns:xlink="http://www.w3.org/1999/xlink">
<g id="graph0" class="graph" transform="scale(1 1) rotate(0) translate(4 774)">
<title>ldap</title>
<polygon fill="#ffffff" stroke="transparent" points="-4,4 -4,-774 3348,-774 3348,4 -4,4"/>
<text text-anchor="middle" x="1672" y="-754.8" font-family="Liberation" font-size="14.00" fill="#000000">LDAP server architecture, torproject.org, october 2020</text>
<g id="clust1" class="cluster">
<title>clusterdb</title>
<polygon fill="none" stroke="#000000" points="8,-8 8,-739 538,-739 538,-8 8,-8"/>
<text text-anchor="middle" x="273" y="-723.8" font-family="Liberation" font-size="14.00" fill="#000000">db.torproject.org</text>
</g>
<g id="clust5" class="cluster">
<title>clusterexample</title>
<polygon fill="none" stroke="#000000" points="2362,-352 2362,-630 3074,-630 3074,-352 2362,-352"/>
<text text-anchor="middle" x="2718" y="-614.8" font-family="Liberation" font-size="14.00" fill="#000000">common to all hosts</text>
</g>
<g id="clust8" class="cluster">
<title>clustergit</title>
<polygon fill="none" stroke="#000000" points="1589,-192 1589,-427 2354,-427 2354,-192 1589,-192"/>
<text text-anchor="middle" x="1971.5" y="-411.8" font-family="Liberation" font-size="14.00" fill="#000000">git.torproject.org</text>
</g>
<g id="clust12" class="cluster">
<title>clusterdns</title>
<polygon fill="none" stroke="#000000" points="910,-119 910,-521 1581,-521 1581,-119 910,-119"/>
<text text-anchor="middle" x="1245.5" y="-505.8" font-family="Liberation" font-size="14.00" fill="#000000">DNS servers</text>
</g>
<g id="clust16" class="cluster">
<title>clusterpuppet</title>
<polygon fill="none" stroke="#000000" points="546,-352 546,-631 902,-631 902,-352 546,-352"/>
<text text-anchor="middle" x="724" y="-615.8" font-family="Liberation" font-size="14.00" fill="#000000">puppet.torproject.org</text>
</g>
<g id="clust17" class="cluster">
<title>clustermail</title>
<polygon fill="none" stroke="#000000" points="3082,-352 3082,-630 3336,-630 3336,-352 3082,-352"/>
<text text-anchor="middle" x="3209" y="-614.8" font-family="Liberation" font-size="14.00" fill="#000000">eugeni.torproject.org</text>
</g>
<!-- LDAP -->
<g id="node1" class="node">
<title>LDAP</title>
<path fill="none" stroke="#000000" d="M364,-704.7273C364,-706.5331 351.8982,-708 337,-708 322.1018,-708 310,-706.5331 310,-704.7273 310,-704.7273 310,-675.2727 310,-675.2727 310,-673.4669 322.1018,-672 337,-672 351.8982,-672 364,-673.4669 364,-675.2727 364,-675.2727 364,-704.7273 364,-704.7273"/>
<path fill="none" stroke="#000000" d="M364,-704.7273C364,-702.9214 351.8982,-701.4545 337,-701.4545 322.1018,-701.4545 310,-702.9214 310,-704.7273"/>
<text text-anchor="middle" x="337" y="-686.3" font-family="Liberaion" font-size="14.00" fill="#000000">LDAP</text>
</g>
<!-- udmailgate -->
<g id="node5" class="node">
<title>udmailgate</title>
<ellipse fill="none" stroke="#000000" cx="83" cy="-472" rx="66.8882" ry="18"/>
<text text-anchor="middle" x="83" y="-468.3" font-family="Liberaion" font-size="14.00" fill="#000000">ud&#45;mailgate</text>
</g>
<!-- LDAP&#45;&gt;udmailgate -->
<g id="edge1" class="edge">
<title>LDAP&#45;&gt;udmailgate</title>
<path fill="none" stroke="#000000" d="M308.8513,-665.8409C259.8482,-623.7831 159.453,-537.6171 110.7384,-495.807"/>
<polygon fill="#000000" stroke="#000000" points="306.7756,-668.6717 316.6435,-672.5287 311.3346,-663.3599 306.7756,-668.6717"/>
<polygon fill="#000000" stroke="#000000" points="112.9688,-493.1089 103.1009,-489.2519 108.4098,-498.4207 112.9688,-493.1089"/>
</g>
<!-- ud&#45;generate -->
<g id="node8" class="node">
<title>ud&#45;generate</title>
<ellipse fill="none" stroke="#000000" cx="422" cy="-472" rx="68.4888" ry="18"/>
<text text-anchor="middle" x="422" y="-468.3" font-family="Liberaion" font-size="14.00" fill="#000000">ud&#45;generate</text>
</g>
<!-- LDAP&#45;&gt;ud&#45;generate -->
<g id="edge4" class="edge">
<title>LDAP&#45;&gt;ud&#45;generate</title>
<path fill="none" stroke="#000000" d="M344.1009,-671.7884C359.0129,-633.5433 393.6616,-544.6796 411.2879,-499.4734"/>
<polygon fill="#000000" stroke="#000000" points="414.6073,-500.5948 414.9791,-490.0064 408.0855,-498.0518 414.6073,-500.5948"/>
</g>
<!-- userdir_ldap_cgi -->
<g id="node11" class="node">
<title>userdir_ldap_cgi</title>
<ellipse fill="none" stroke="#000000" cx="252" cy="-472" rx="83.6854" ry="18"/>
<text text-anchor="middle" x="252" y="-468.3" font-family="Liberaion" font-size="14.00" fill="#000000">userdir&#45;ldap&#45;cgi</text>
</g>
<!-- LDAP&#45;&gt;userdir_ldap_cgi -->
<g id="edge12" class="edge">
<title>LDAP&#45;&gt;userdir_ldap_cgi</title>
<path fill="none" stroke="#000000" d="M326.193,-662.2831C309.8531,-620.3761 279.0414,-541.3533 262.7408,-499.5469"/>
<polygon fill="#000000" stroke="#000000" points="323.0055,-663.743 329.8991,-671.7884 329.5273,-661.2001 323.0055,-663.743"/>
<polygon fill="#000000" stroke="#000000" points="265.9145,-498.0518 259.0209,-490.0064 259.3927,-500.5948 265.9145,-498.0518"/>
</g>
<!-- puppetd -->
<g id="node40" class="node">
<title>puppetd</title>
<ellipse fill="none" stroke="#000000" cx="818" cy="-581" rx="76.0865" ry="18"/>
<text text-anchor="middle" x="818" y="-577.3" font-family="Liberaion" font-size="14.00" fill="#000000">Puppet server</text>
</g>
<!-- LDAP&#45;&gt;puppetd -->
<g id="edge42" class="edge">
<title>LDAP&#45;&gt;puppetd</title>
<path fill="none" stroke="#000000" d="M364.111,-675.2123C367.0547,-673.9807 370.0525,-672.8748 373,-672 527.3779,-626.1797 580.2708,-682.0475 733,-631 751.7318,-624.7392 770.8418,-613.9679 786.1855,-604.0224"/>
<polygon fill="#000000" stroke="#000000" points="788.3796,-606.766 794.753,-598.3025 784.4928,-600.9442 788.3796,-606.766"/>
<text text-anchor="middle" x="758" y="-642.8" font-family="Liberation" font-size="14.00" fill="#000000">host metadata</text>
</g>
<!-- master files -->
<g id="node2" class="node">
<title>master files</title>
<polygon fill="none" stroke="#000000" points="459.5,-309 358.5,-309 358.5,-273 459.5,-273 459.5,-309"/>
<text text-anchor="middle" x="409" y="-287.3" font-family="Liberaion" font-size="14.00" fill="#000000">master files</text>
</g>
<!-- sshdist -->
<g id="node3" class="node">
<title>sshdist</title>
<ellipse fill="none" stroke="#000000" cx="456" cy="-690" rx="74.187" ry="18"/>
<text text-anchor="middle" x="456" y="-686.3" font-family="Liberaion" font-size="14.00" fill="#000000">sshdist@sshd</text>
</g>
<!-- master files&#45;&gt;sshdist -->
<g id="edge10" class="edge">
<title>master files&#45;&gt;sshdist</title>
<path fill="none" stroke="#000000" d="M452.8615,-309.0168C479.7302,-323.2784 509,-346.1286 509,-378 509,-581 509,-581 509,-581 509,-611.7 491.7854,-642.8108 476.9779,-663.8927"/>
<polygon fill="#000000" stroke="#000000" points="474.1215,-661.8695 471.0459,-672.0081 479.7727,-666.0003 474.1215,-661.8695"/>
</g>
<!-- udreplicate_db -->
<g id="node4" class="node">
<title>udreplicate_db</title>
<ellipse fill="none" stroke="#000000" cx="308" cy="-145" rx="67.6881" ry="18"/>
<text text-anchor="middle" x="308" y="-141.3" font-family="Liberaion" font-size="14.00" fill="#000000">ud&#45;replicate</text>
</g>
<!-- master files&#45;&gt;udreplicate_db -->
<g id="edge6" class="edge">
<title>master files&#45;&gt;udreplicate_db</title>
<path fill="none" stroke="#000000" d="M396.4125,-272.8042C378.7768,-247.3111 346.6042,-200.8041 326.3148,-171.4749"/>
<polygon fill="#000000" stroke="#000000" points="328.9965,-169.1992 320.4289,-162.9665 323.2397,-173.1817 328.9965,-169.1992"/>
</g>
<!-- authkeys_sshdist -->
<g id="node10" class="node">
<title>authkeys_sshdist</title>
<polygon fill="none" stroke="#000000" points="530,-52 334,-52 334,-16 530,-16 530,-52"/>
<text text-anchor="middle" x="432" y="-30.3" font-family="Liberaion" font-size="14.00" fill="#000000">/etc/ssh/userkeys/sshdist</text>
</g>
<!-- sshdist&#45;&gt;authkeys_sshdist -->
<g id="edge11" class="edge">
<title>sshdist&#45;&gt;authkeys_sshdist</title>
<path fill="none" stroke="#000000" d="M477.1146,-672.7181C498.6743,-652.9976 529,-618.5796 529,-581 529,-581 529,-581 529,-435.5 529,-353.7295 496,-336.2705 496,-254.5 496,-254.5 496,-254.5 496,-89.5 496,-73.4693 484.3975,-61.0282 471.0727,-52.026"/>
<text text-anchor="middle" x="518" y="-287.3" font-family="Liberation" font-size="14.00" fill="#000000">uses</text>
</g>
<!-- udreplicate_example -->
<g id="node13" class="node">
<title>udreplicate_example</title>
<ellipse fill="none" stroke="#000000" cx="2520" cy="-581" rx="67.6881" ry="18"/>
<text text-anchor="middle" x="2520" y="-577.3" font-family="Liberaion" font-size="14.00" fill="#000000">ud&#45;replicate</text>
</g>
<!-- sshdist&#45;&gt;udreplicate_example -->
<g id="edge15" class="edge">
<title>sshdist&#45;&gt;udreplicate_example</title>
<path fill="none" stroke="#000000" d="M530.0043,-688.373C736.4962,-683.7672 1336.514,-669.9348 1835,-654 2105.2774,-645.3602 2185.2169,-712.6848 2443,-631 2460.6162,-625.4179 2478.0691,-614.6368 2491.8935,-604.5106"/>
<polygon fill="#000000" stroke="#000000" points="2494.1617,-607.1829 2500.0013,-598.3426 2489.9234,-601.6117 2494.1617,-607.1829"/>
<text text-anchor="middle" x="2431.5" y="-642.8" font-family="Liberation" font-size="14.00" fill="#000000">rsync</text>
</g>
<!-- udreplicate_git -->
<g id="node22" class="node">
<title>udreplicate_git</title>
<ellipse fill="none" stroke="#000000" cx="2278" cy="-378" rx="67.6881" ry="18"/>
<text text-anchor="middle" x="2278" y="-374.3" font-family="Liberaion" font-size="14.00" fill="#000000">ud&#45;replicate</text>
</g>
<!-- sshdist&#45;&gt;udreplicate_git -->
<g id="edge23" class="edge">
<title>sshdist&#45;&gt;udreplicate_git</title>
<path fill="none" stroke="#000000" d="M526.4533,-684.1971C607.4585,-677.4219 744.4022,-665.6523 862,-654 1462.6609,-594.4828 1638.8464,-646.8162 2201,-427 2217.3424,-420.6097 2233.955,-410.5787 2247.5457,-401.2526"/>
<polygon fill="#000000" stroke="#000000" points="2249.8617,-403.9017 2256.0072,-395.2712 2245.821,-398.1856 2249.8617,-403.9017"/>
<text text-anchor="middle" x="1922.5" y="-532.8" font-family="Liberation" font-size="14.00" fill="#000000">rsync</text>
</g>
<!-- udreplicate_dns -->
<g id="node30" class="node">
<title>udreplicate_dns</title>
<ellipse fill="none" stroke="#000000" cx="1150" cy="-472" rx="67.6881" ry="18"/>
<text text-anchor="middle" x="1150" y="-468.3" font-family="Liberaion" font-size="14.00" fill="#000000">ud&#45;replicate</text>
</g>
<!-- sshdist&#45;&gt;udreplicate_dns -->
<g id="edge28" class="edge">
<title>sshdist&#45;&gt;udreplicate_dns</title>
<path fill="none" stroke="#000000" d="M527.8885,-685.4378C637.2579,-677.6831 839.7346,-659.8998 906,-631 989.8136,-594.4471 1076.976,-530.1912 1120.9298,-495.6137"/>
<polygon fill="#000000" stroke="#000000" points="1123.2152,-498.2684 1128.8773,-489.3135 1118.8666,-492.783 1123.2152,-498.2684"/>
<text text-anchor="middle" x="1048.5" y="-577.3" font-family="Liberation" font-size="14.00" fill="#000000">rsync</text>
</g>
<!-- udreplicate_eugeni -->
<g id="node43" class="node">
<title>udreplicate_eugeni</title>
<ellipse fill="none" stroke="#000000" cx="3158" cy="-581" rx="67.6881" ry="18"/>
<text text-anchor="middle" x="3158" y="-577.3" font-family="Liberaion" font-size="14.00" fill="#000000">ud&#45;replicate</text>
</g>
<!-- sshdist&#45;&gt;udreplicate_eugeni -->
<g id="edge44" class="edge">
<title>sshdist&#45;&gt;udreplicate_eugeni</title>
<path fill="none" stroke="#000000" d="M530.4348,-689.1666C793.4724,-686.1136 1703.8011,-674.6288 2455,-654 2731.9731,-646.394 2813.1142,-712.2863 3078,-631 3096.1532,-625.4293 3114.272,-614.6492 3128.6644,-604.5209"/>
<polygon fill="#000000" stroke="#000000" points="3131.1003,-607.0759 3137.1111,-598.3511 3126.9714,-601.4232 3131.1003,-607.0759"/>
<text text-anchor="middle" x="3066.5" y="-642.8" font-family="Liberation" font-size="14.00" fill="#000000">rsync</text>
</g>
<!-- keyring -->
<g id="node7" class="node">
<title>keyring</title>
<polygon fill="none" stroke="#000000" points="166,-52 96,-52 96,-16 166,-16 166,-52"/>
<text text-anchor="middle" x="131" y="-30.3" font-family="Liberaion" font-size="14.00" fill="#000000">keyring</text>
</g>
<!-- udreplicate_db&#45;&gt;keyring -->
<g id="edge7" class="edge">
<title>udreplicate_db&#45;&gt;keyring</title>
<path fill="none" stroke="#000000" d="M281.5013,-128.3822C251.4901,-109.5616 202.3628,-78.7529 168.4433,-57.4814"/>
<polygon fill="#000000" stroke="#000000" points="170.0702,-54.3704 159.7388,-52.0226 166.3512,-60.3007 170.0702,-54.3704"/>
</g>
<!-- local files -->
<g id="node9" class="node">
<title>local files</title>
<polygon fill="none" stroke="#000000" points="316,-52 232,-52 232,-16 316,-16 316,-52"/>
<text text-anchor="middle" x="274" y="-30.3" font-family="Liberaion" font-size="14.00" fill="#000000">local files</text>
</g>
<!-- udreplicate_db&#45;&gt;local files -->
<g id="edge8" class="edge">
<title>udreplicate_db&#45;&gt;local files</title>
<path fill="none" stroke="#000000" d="M302.3856,-126.6706C296.9964,-109.0766 288.7821,-82.2591 282.5741,-61.992"/>
<polygon fill="#000000" stroke="#000000" points="285.8981,-60.893 279.6227,-52.3566 279.205,-62.9432 285.8981,-60.893"/>
</g>
<!-- udreplicate_db&#45;&gt;authkeys_sshdist -->
<g id="edge9" class="edge">
<title>udreplicate_db&#45;&gt;authkeys_sshdist</title>
<path fill="none" stroke="#000000" d="M327.375,-127.6563C347.9373,-109.2497 380.6231,-79.9906 403.9883,-59.0749"/>
<polygon fill="#000000" stroke="#000000" points="406.4075,-61.6069 411.5239,-52.3294 401.7386,-56.3913 406.4075,-61.6069"/>
</g>
<!-- udmailgate&#45;&gt;keyring -->
<g id="edge3" class="edge">
<title>udmailgate&#45;&gt;keyring</title>
<path fill="none" stroke="#000000" d="M90.4622,-453.976C97.5074,-435.3052 107,-405.1172 107,-378 107,-378 107,-378 107,-89.5 107,-76.2729 112.814,-62.6214 118.7188,-52.1675"/>
<text text-anchor="middle" x="124" y="-214.3" font-family="Liberation" font-size="14.00" fill="#000000">uses</text>
</g>
<!-- postfix_ldap -->
<g id="node6" class="node">
<title>postfix_ldap</title>
<ellipse fill="none" stroke="#000000" cx="83" cy="-690" rx="42.4939" ry="18"/>
<text text-anchor="middle" x="83" y="-686.3" font-family="Liberaion" font-size="14.00" fill="#000000">postfix</text>
</g>
<!-- postfix_ldap&#45;&gt;udmailgate -->
<g id="edge2" class="edge">
<title>postfix_ldap&#45;&gt;udmailgate</title>
<path fill="none" stroke="#000000" d="M83,-671.7884C83,-633.704 83,-545.4255 83,-500.0455"/>
<polygon fill="#000000" stroke="#000000" points="86.5001,-500.0064 83,-490.0064 79.5001,-500.0065 86.5001,-500.0064"/>
</g>
<!-- ud&#45;generate&#45;&gt;master files -->
<g id="edge5" class="edge">
<title>ud&#45;generate&#45;&gt;master files</title>
<path fill="none" stroke="#000000" d="M420.706,-453.9833C418.4439,-422.4877 413.754,-357.1909 411.0474,-319.5061"/>
<polygon fill="#000000" stroke="#000000" points="414.5156,-318.936 410.3081,-309.2125 407.5335,-319.4375 414.5156,-318.936"/>
</g>
<!-- apache -->
<g id="node12" class="node">
<title>apache</title>
<ellipse fill="none" stroke="#000000" cx="248" cy="-690" rx="44.393" ry="18"/>
<text text-anchor="middle" x="248" y="-686.3" font-family="Liberaion" font-size="14.00" fill="#000000">apache</text>
</g>
<!-- apache&#45;&gt;userdir_ldap_cgi -->
<g id="edge13" class="edge">
<title>apache&#45;&gt;userdir_ldap_cgi</title>
<path fill="none" stroke="#000000" d="M248.3342,-671.7884C249.033,-633.704 250.6527,-545.4255 251.4854,-500.0455"/>
<polygon fill="#000000" stroke="#000000" points="254.9855,-500.069 251.6696,-490.0064 247.9866,-499.9405 254.9855,-500.069"/>
</g>
<!-- userkeys -->
<g id="node14" class="node">
<title>userkeys</title>
<polygon fill="none" stroke="#000000" points="2914,-396 2796,-396 2796,-360 2914,-360 2914,-396"/>
<text text-anchor="middle" x="2855" y="-374.3" font-family="Liberaion" font-size="14.00" fill="#000000">SSH user keys</text>
</g>
<!-- udreplicate_example&#45;&gt;userkeys -->
<g id="edge16" class="edge">
<title>udreplicate_example&#45;&gt;userkeys</title>
<path fill="none" stroke="#000000" d="M2541.8291,-563.9069C2556.5647,-552.1639 2576.2969,-536.0377 2593,-521 2624.5316,-492.6123 2624.0965,-474.9339 2661,-454 2702.5369,-430.4377 2720.5866,-444.5484 2765,-427 2782.7042,-420.0048 2801.3316,-410.297 2817.0176,-401.3661"/>
<polygon fill="#000000" stroke="#000000" points="2818.9895,-404.2685 2825.8841,-396.2239 2815.4777,-398.2132 2818.9895,-404.2685"/>
</g>
<!-- known_hosts -->
<g id="node16" class="node">
<title>known_hosts</title>
<polygon fill="none" stroke="#000000" points="2684,-396 2516,-396 2516,-360 2684,-360 2684,-396"/>
<text text-anchor="middle" x="2600" y="-374.3" font-family="Liberaion" font-size="14.00" fill="#000000">/etc/ssh/known_hosts</text>
</g>
<!-- udreplicate_example&#45;&gt;known_hosts -->
<g id="edge17" class="edge">
<title>udreplicate_example&#45;&gt;known_hosts</title>
<path fill="none" stroke="#000000" d="M2527.0995,-562.9851C2541.1187,-527.4113 2572.4379,-447.9389 2589.0946,-405.6725"/>
<polygon fill="#000000" stroke="#000000" points="2592.3912,-406.8532 2592.8014,-396.2663 2585.8787,-404.2867 2592.3912,-406.8532"/>
</g>
<!-- files_example -->
<g id="node17" class="node">
<title>files_example</title>
<polygon fill="none" stroke="#000000" points="2498,-396 2444,-396 2444,-360 2498,-360 2498,-396"/>
<text text-anchor="middle" x="2471" y="-374.3" font-family="Liberaion" font-size="14.00" fill="#000000">...</text>
</g>
<!-- udreplicate_example&#45;&gt;files_example -->
<g id="edge18" class="edge">
<title>udreplicate_example&#45;&gt;files_example</title>
<path fill="none" stroke="#000000" d="M2515.6516,-562.9851C2507.101,-527.5614 2488.0435,-448.6088 2477.8092,-406.2095"/>
<polygon fill="#000000" stroke="#000000" points="2481.1579,-405.1659 2475.4091,-396.2663 2474.3533,-406.8084 2481.1579,-405.1659"/>
</g>
<!-- NSS -->
<g id="node18" class="node">
<title>NSS</title>
<path fill="none" stroke="#000000" d="M2426,-392.7273C2426,-394.5331 2413.8982,-396 2399,-396 2384.1018,-396 2372,-394.5331 2372,-392.7273 2372,-392.7273 2372,-363.2727 2372,-363.2727 2372,-361.4669 2384.1018,-360 2399,-360 2413.8982,-360 2426,-361.4669 2426,-363.2727 2426,-363.2727 2426,-392.7273 2426,-392.7273"/>
<path fill="none" stroke="#000000" d="M2426,-392.7273C2426,-390.9214 2413.8982,-389.4545 2399,-389.4545 2384.1018,-389.4545 2372,-390.9214 2372,-392.7273"/>
<text text-anchor="middle" x="2399" y="-374.3" font-family="Liberaion" font-size="14.00" fill="#000000">NSS</text>
</g>
<!-- udreplicate_example&#45;&gt;NSS -->
<g id="edge19" class="edge">
<title>udreplicate_example&#45;&gt;NSS</title>
<path fill="none" stroke="#000000" d="M2509.2621,-562.9851C2487.9238,-527.1862 2440.087,-446.9312 2415.0188,-404.8745"/>
<polygon fill="#000000" stroke="#000000" points="2418.0144,-403.0641 2409.8878,-396.2663 2412.0015,-406.6482 2418.0144,-403.0641"/>
</g>
<!-- PAM -->
<g id="node19" class="node">
<title>PAM</title>
<path fill="none" stroke="#000000" d="M2756,-392.7273C2756,-394.5331 2743.8982,-396 2729,-396 2714.1018,-396 2702,-394.5331 2702,-392.7273 2702,-392.7273 2702,-363.2727 2702,-363.2727 2702,-361.4669 2714.1018,-360 2729,-360 2743.8982,-360 2756,-361.4669 2756,-363.2727 2756,-363.2727 2756,-392.7273 2756,-392.7273"/>
<path fill="none" stroke="#000000" d="M2756,-392.7273C2756,-390.9214 2743.8982,-389.4545 2729,-389.4545 2714.1018,-389.4545 2702,-390.9214 2702,-392.7273"/>
<text text-anchor="middle" x="2729" y="-374.3" font-family="Liberaion" font-size="14.00" fill="#000000">PAM</text>
</g>
<!-- udreplicate_example&#45;&gt;PAM -->
<g id="edge20" class="edge">
<title>udreplicate_example&#45;&gt;PAM</title>
<path fill="none" stroke="#000000" d="M2532.4105,-563.1286C2558.4175,-525.9147 2617.3577,-442.8935 2631,-435 2655.0486,-421.0854 2669.0664,-441.1114 2693,-427 2701.9085,-421.7475 2709.2708,-413.339 2714.9658,-404.9593"/>
<polygon fill="#000000" stroke="#000000" points="2717.9961,-406.7138 2720.2919,-396.3707 2712.0471,-403.0246 2717.9961,-406.7138"/>
</g>
<!-- note -->
<g id="node15" class="node">
<title>note</title>
<polygon fill="none" stroke="#000000" points="3059.5,-599 2688.5,-599 2688.5,-563 3065.5,-563 3065.5,-593 3059.5,-599"/>
<polyline fill="none" stroke="#000000" points="3059.5,-599 3059.5,-593 "/>
<polyline fill="none" stroke="#000000" points="3065.5,-593 3059.5,-593 "/>
<text text-anchor="middle" x="2877" y="-577.3" font-family="Liberaion" font-size="14.00" fill="#000000">deployed from tarball to /var/lib/misc/userkeys/%u</text>
</g>
<!-- note&#45;&gt;userkeys -->
<g id="edge14" class="edge">
<title>note&#45;&gt;userkeys</title>
<path fill="none" stroke="#000000" d="M2875.0476,-562.9851C2870.8833,-524.5594 2861.1681,-434.9143 2856.9796,-396.2663"/>
</g>
<!-- sudo -->
<g id="node20" class="node">
<title>sudo</title>
<ellipse fill="none" stroke="#000000" cx="2638" cy="-581" rx="32.4942" ry="18"/>
<text text-anchor="middle" x="2638" y="-577.3" font-family="Liberaion" font-size="14.00" fill="#000000">sudo</text>
</g>
<!-- sudo&#45;&gt;PAM -->
<g id="edge21" class="edge">
<title>sudo&#45;&gt;PAM</title>
<path fill="none" stroke="#000000" d="M2645.9165,-563.3402C2661.8428,-527.8122 2697.8493,-447.4901 2716.8049,-405.2045"/>
<polygon fill="#000000" stroke="#000000" points="2720.0097,-406.6114 2720.9066,-396.0546 2713.6222,-403.748 2720.0097,-406.6114"/>
<text text-anchor="middle" x="2711" y="-468.3" font-family="Liberation" font-size="14.00" fill="#000000">uses</text>
</g>
<!-- sshd -->
<g id="node21" class="node">
<title>sshd</title>
<ellipse fill="none" stroke="#000000" cx="2402" cy="-581" rx="32.4942" ry="18"/>
<text text-anchor="middle" x="2402" y="-577.3" font-family="Liberaion" font-size="14.00" fill="#000000">sshd</text>
</g>
<!-- sshd&#45;&gt;NSS -->
<g id="edge22" class="edge">
<title>sshd&#45;&gt;NSS</title>
<path fill="none" stroke="#000000" d="M2401.7338,-562.9851C2401.2114,-527.6365 2400.0484,-448.9431 2399.4209,-406.4795"/>
<polygon fill="#000000" stroke="#000000" points="2402.9174,-406.2135 2399.2699,-396.2663 2395.9182,-406.317 2402.9174,-406.2135"/>
<text text-anchor="middle" x="2418" y="-468.3" font-family="Liberation" font-size="14.00" fill="#000000">uses</text>
</g>
<!-- files_git -->
<g id="node23" class="node">
<title>files_git</title>
<polygon fill="none" stroke="#000000" points="2334,-236 2280,-236 2280,-200 2334,-200 2334,-236"/>
<text text-anchor="middle" x="2307" y="-214.3" font-family="Liberaion" font-size="14.00" fill="#000000">...</text>
</g>
<!-- udreplicate_git&#45;&gt;files_git -->
<g id="edge24" class="edge">
<title>udreplicate_git&#45;&gt;files_git</title>
<path fill="none" stroke="#000000" d="M2281.2703,-359.957C2286.2961,-332.2286 2295.9594,-278.9135 2301.9072,-246.0982"/>
<polygon fill="#000000" stroke="#000000" points="2305.3575,-246.6865 2303.6972,-236.2226 2298.4697,-245.438 2305.3575,-246.6865"/>
</g>
<!-- gitolite_authkeys -->
<g id="node24" class="node">
<title>gitolite_authkeys</title>
<polygon fill="none" stroke="#000000" points="2261.5,-236 2060.5,-236 2060.5,-200 2261.5,-200 2261.5,-236"/>
<text text-anchor="middle" x="2161" y="-214.3" font-family="Liberaion" font-size="14.00" fill="#000000">~git/.ssh/authorized_keys</text>
</g>
<!-- udreplicate_git&#45;&gt;gitolite_authkeys -->
<g id="edge25" class="edge">
<title>udreplicate_git&#45;&gt;gitolite_authkeys</title>
<path fill="none" stroke="#000000" d="M2265.0319,-360.2659C2244.4962,-332.1829 2204.3702,-277.3097 2180.3994,-244.5291"/>
<polygon fill="#000000" stroke="#000000" points="2183.1137,-242.3114 2174.3857,-236.3053 2177.4633,-246.4433 2183.1137,-242.3114"/>
</g>
<!-- sshd_git -->
<g id="node25" class="node">
<title>sshd_git</title>
<ellipse fill="none" stroke="#000000" cx="2010" cy="-218" rx="32.4942" ry="18"/>
<text text-anchor="middle" x="2010" y="-214.3" font-family="Liberaion" font-size="14.00" fill="#000000">sshd</text>
</g>
<!-- gitolite -->
<g id="node26" class="node">
<title>gitolite</title>
<ellipse fill="none" stroke="#000000" cx="2148" cy="-378" rx="44.393" ry="18"/>
<text text-anchor="middle" x="2148" y="-374.3" font-family="Liberaion" font-size="14.00" fill="#000000">gitolite</text>
</g>
<!-- gitolite&#45;&gt;gitolite_authkeys -->
<g id="edge26" class="edge">
<title>gitolite&#45;&gt;gitolite_authkeys</title>
<path fill="none" stroke="#000000" d="M2149.466,-359.957C2151.9627,-329.2277 2157.0128,-267.0737 2159.5194,-236.2226"/>
<text text-anchor="middle" x="2173" y="-287.3" font-family="Liberation" font-size="14.00" fill="#000000">uses</text>
</g>
<!-- gitolite&#45;&gt;sshd_git -->
<g id="edge27" class="edge">
<title>gitolite&#45;&gt;sshd_git</title>
<path fill="none" stroke="#000000" d="M2133.2316,-360.8772C2106.5314,-329.9205 2050.5637,-265.0304 2024.2487,-234.5202"/>
<text text-anchor="middle" x="2105" y="-287.3" font-family="Liberation" font-size="14.00" fill="#000000">uses</text>
</g>
<!-- auto_dns_git -->
<g id="node27" class="node">
<title>auto_dns_git</title>
<path fill="none" stroke="#000000" d="M1730.5,-392.7273C1730.5,-394.5331 1700.6936,-396 1664,-396 1627.3064,-396 1597.5,-394.5331 1597.5,-392.7273 1597.5,-392.7273 1597.5,-363.2727 1597.5,-363.2727 1597.5,-361.4669 1627.3064,-360 1664,-360 1700.6936,-360 1730.5,-361.4669 1730.5,-363.2727 1730.5,-363.2727 1730.5,-392.7273 1730.5,-392.7273"/>
<path fill="none" stroke="#000000" d="M1730.5,-392.7273C1730.5,-390.9214 1700.6936,-389.4545 1664,-389.4545 1627.3064,-389.4545 1597.5,-390.9214 1597.5,-392.7273"/>
<text text-anchor="middle" x="1664" y="-374.3" font-family="Liberaion" font-size="14.00" fill="#000000">dns/auto&#45;dns.git</text>
</g>
<!-- auto_dns -->
<g id="node36" class="node">
<title>auto_dns</title>
<polygon fill="none" stroke="#000000" points="1360.5,-309 1279.5,-309 1279.5,-273 1360.5,-273 1360.5,-309"/>
<text text-anchor="middle" x="1320" y="-287.3" font-family="Liberaion" font-size="14.00" fill="#000000">auto_dns</text>
</g>
<!-- auto_dns_git&#45;&gt;auto_dns -->
<g id="edge33" class="edge">
<title>auto_dns_git&#45;&gt;auto_dns</title>
<path fill="none" stroke="#000000" d="M1614.6035,-360.4844C1604.8669,-357.3899 1594.6704,-354.3965 1585,-352 1559.1847,-345.6026 1552.1267,-346.9754 1526,-342 1459.3748,-329.3123 1439.8264,-328.4359 1370.1977,-308.8607"/>
<polygon fill="#000000" stroke="#000000" points="1371.0834,-305.4739 1360.5075,-306.1082 1369.1706,-312.2075 1371.0834,-305.4739"/>
<text text-anchor="middle" x="1552" y="-330.8" font-family="Liberation" font-size="14.00" fill="#000000">git pull</text>
</g>
<!-- domains_git -->
<g id="node28" class="node">
<title>domains_git</title>
<path fill="none" stroke="#000000" d="M1879.5,-392.7273C1879.5,-394.5331 1850.1419,-396 1814,-396 1777.8581,-396 1748.5,-394.5331 1748.5,-392.7273 1748.5,-392.7273 1748.5,-363.2727 1748.5,-363.2727 1748.5,-361.4669 1777.8581,-360 1814,-360 1850.1419,-360 1879.5,-361.4669 1879.5,-363.2727 1879.5,-363.2727 1879.5,-392.7273 1879.5,-392.7273"/>
<path fill="none" stroke="#000000" d="M1879.5,-392.7273C1879.5,-390.9214 1850.1419,-389.4545 1814,-389.4545 1777.8581,-389.4545 1748.5,-390.9214 1748.5,-392.7273"/>
<text text-anchor="middle" x="1814" y="-374.3" font-family="Liberaion" font-size="14.00" fill="#000000">dns/domains.git</text>
</g>
<!-- domains -->
<g id="node35" class="node">
<title>domains</title>
<polygon fill="none" stroke="#000000" points="1455.5,-309 1378.5,-309 1378.5,-273 1455.5,-273 1455.5,-309"/>
<text text-anchor="middle" x="1417" y="-287.3" font-family="Liberaion" font-size="14.00" fill="#000000">domains</text>
</g>
<!-- domains_git&#45;&gt;domains -->
<g id="edge32" class="edge">
<title>domains_git&#45;&gt;domains</title>
<path fill="none" stroke="#000000" d="M1769.5287,-360.2917C1759.9212,-357.0564 1749.7251,-354.058 1740,-352 1685.041,-340.3698 1668.6058,-355.1892 1614,-342 1597.1512,-337.9304 1594.6755,-331.7298 1578,-327 1531.9413,-313.936 1516.0311,-321.0323 1465.4245,-308.7472"/>
<polygon fill="#000000" stroke="#000000" points="1466.1121,-305.3104 1455.5562,-306.2185 1464.3744,-312.0913 1466.1121,-305.3104"/>
<text text-anchor="middle" x="1640" y="-330.8" font-family="Liberation" font-size="14.00" fill="#000000">git pull</text>
</g>
<!-- letsencrypt_domains_git -->
<g id="node29" class="node">
<title>letsencrypt_domains_git</title>
<path fill="none" stroke="#000000" d="M2086,-392.7273C2086,-394.5331 2043.8677,-396 1992,-396 1940.1323,-396 1898,-394.5331 1898,-392.7273 1898,-392.7273 1898,-363.2727 1898,-363.2727 1898,-361.4669 1940.1323,-360 1992,-360 2043.8677,-360 2086,-361.4669 2086,-363.2727 2086,-363.2727 2086,-392.7273 2086,-392.7273"/>
<path fill="none" stroke="#000000" d="M2086,-392.7273C2086,-390.9214 2043.8677,-389.4545 1992,-389.4545 1940.1323,-389.4545 1898,-390.9214 1898,-392.7273"/>
<text text-anchor="middle" x="1992" y="-374.3" font-family="Liberaion" font-size="14.00" fill="#000000">letsencrypt&#45;domains.git</text>
</g>
<!-- le_snippets -->
<g id="node37" class="node">
<title>le_snippets</title>
<polygon fill="none" stroke="#000000" points="1572.5,-309 1473.5,-309 1473.5,-273 1572.5,-273 1572.5,-309"/>
<text text-anchor="middle" x="1523" y="-287.3" font-family="Liberaion" font-size="14.00" fill="#000000">le_snippets</text>
</g>
<!-- letsencrypt_domains_git&#45;&gt;le_snippets -->
<g id="edge34" class="edge">
<title>letsencrypt_domains_git&#45;&gt;le_snippets</title>
<path fill="none" stroke="#000000" d="M1926.8516,-360.4384C1914.342,-357.3835 1901.3062,-354.4164 1889,-352 1755.1008,-325.7082 1718.4144,-337.6504 1585,-309 1584.113,-308.8095 1583.2202,-308.6131 1582.3227,-308.4113"/>
<polygon fill="#000000" stroke="#000000" points="1583.1284,-305.0053 1572.5871,-306.069 1581.4909,-311.8111 1583.1284,-305.0053"/>
<text text-anchor="middle" x="1867.5" y="-330.8" font-family="Liberation" font-size="14.00" fill="#000000">push hook</text>
</g>
<!-- dns_sshfp -->
<g id="node31" class="node">
<title>dns_sshfp</title>
<polygon fill="none" stroke="#000000" points="1261,-309 1173,-309 1173,-273 1261,-273 1261,-309"/>
<text text-anchor="middle" x="1217" y="-287.3" font-family="Liberaion" font-size="14.00" fill="#000000">dns_sshfp</text>
</g>
<!-- udreplicate_dns&#45;&gt;dns_sshfp -->
<g id="edge29" class="edge">
<title>udreplicate_dns&#45;&gt;dns_sshfp</title>
<path fill="none" stroke="#000000" d="M1156.6692,-453.9833C1168.3778,-422.3525 1192.7061,-356.6298 1206.6271,-319.0224"/>
<polygon fill="#000000" stroke="#000000" points="1210.0692,-319.8056 1210.2584,-309.2125 1203.5045,-317.3755 1210.0692,-319.8056"/>
</g>
<!-- dns_zone -->
<g id="node32" class="node">
<title>dns_zone</title>
<polygon fill="none" stroke="#000000" points="1154.5,-309 1071.5,-309 1071.5,-273 1154.5,-273 1154.5,-309"/>
<text text-anchor="middle" x="1113" y="-287.3" font-family="Liberaion" font-size="14.00" fill="#000000">dns_zone</text>
</g>
<!-- udreplicate_dns&#45;&gt;dns_zone -->
<g id="edge30" class="edge">
<title>udreplicate_dns&#45;&gt;dns_zone</title>
<path fill="none" stroke="#000000" d="M1146.317,-453.9833C1139.8511,-422.3525 1126.416,-356.6298 1118.7283,-319.0224"/>
<polygon fill="#000000" stroke="#000000" points="1122.1549,-318.3088 1116.723,-309.2125 1115.2968,-319.7109 1122.1549,-318.3088"/>
</g>
<!-- zone_files -->
<g id="node38" class="node">
<title>zone_files</title>
<path fill="none" stroke="#000000" d="M1330.5,-159.7273C1330.5,-161.5331 1302.4865,-163 1268,-163 1233.5135,-163 1205.5,-161.5331 1205.5,-159.7273 1205.5,-159.7273 1205.5,-130.2727 1205.5,-130.2727 1205.5,-128.4669 1233.5135,-127 1268,-127 1302.4865,-127 1330.5,-128.4669 1330.5,-130.2727 1330.5,-130.2727 1330.5,-159.7273 1330.5,-159.7273"/>
<path fill="none" stroke="#000000" d="M1330.5,-159.7273C1330.5,-157.9214 1302.4865,-156.4545 1268,-156.4545 1233.5135,-156.4545 1205.5,-157.9214 1205.5,-159.7273"/>
<text text-anchor="middle" x="1268" y="-141.3" font-family="Liberaion" font-size="14.00" fill="#000000">BIND zone files</text>
</g>
<!-- dns_sshfp&#45;&gt;zone_files -->
<g id="edge35" class="edge">
<title>dns_sshfp&#45;&gt;zone_files</title>
<path fill="none" stroke="#000000" d="M1223.3561,-272.8042C1232.0983,-247.7775 1247.9148,-202.4988 1258.1837,-173.1017"/>
<polygon fill="#000000" stroke="#000000" points="1261.5702,-174.0199 1261.5638,-163.4251 1254.9618,-171.7115 1261.5702,-174.0199"/>
</g>
<!-- dns_zone&#45;&gt;zone_files -->
<g id="edge36" class="edge">
<title>dns_zone&#45;&gt;zone_files</title>
<path fill="none" stroke="#000000" d="M1132.3175,-272.8042C1159.6991,-247.0125 1209.9157,-199.7117 1240.9797,-170.4514"/>
<polygon fill="#000000" stroke="#000000" points="1243.5596,-172.8295 1248.4391,-163.4251 1238.76,-167.734 1243.5596,-172.8295"/>
</g>
<!-- puppet_agent -->
<g id="node33" class="node">
<title>puppet_agent</title>
<ellipse fill="none" stroke="#000000" cx="991" cy="-472" rx="73.387" ry="18"/>
<text text-anchor="middle" x="991" y="-468.3" font-family="Liberaion" font-size="14.00" fill="#000000">Puppet agent</text>
</g>
<!-- puppet_includes -->
<g id="node34" class="node">
<title>puppet_includes</title>
<polygon fill="none" stroke="#000000" points="1053.5,-309 918.5,-309 918.5,-273 1053.5,-273 1053.5,-309"/>
<text text-anchor="middle" x="986" y="-287.3" font-family="Liberaion" font-size="14.00" fill="#000000">puppet_includes</text>
</g>
<!-- puppet_agent&#45;&gt;puppet_includes -->
<g id="edge31" class="edge">
<title>puppet_agent&#45;&gt;puppet_includes</title>
<path fill="none" stroke="#000000" d="M990.5023,-453.9833C989.6323,-422.4877 987.8285,-357.1909 986.7875,-319.5061"/>
<polygon fill="#000000" stroke="#000000" points="990.278,-319.112 986.5031,-309.2125 983.2807,-319.3053 990.278,-319.112"/>
</g>
<!-- puppet_includes&#45;&gt;zone_files -->
<g id="edge37" class="edge">
<title>puppet_includes&#45;&gt;zone_files</title>
<path fill="none" stroke="#000000" d="M1017.916,-272.8979C1054.0203,-252.5943 1114.7322,-218.9763 1168,-192 1184.5949,-183.5959 1202.9657,-174.8151 1219.3862,-167.1487"/>
<polygon fill="#000000" stroke="#000000" points="1221.2063,-170.1624 1228.8007,-162.7748 1218.257,-163.814 1221.2063,-170.1624"/>
</g>
<!-- domains&#45;&gt;zone_files -->
<g id="edge38" class="edge">
<title>domains&#45;&gt;zone_files</title>
<path fill="none" stroke="#000000" d="M1398.4303,-272.8042C1372.1086,-247.0125 1323.8359,-199.7117 1293.9744,-170.4514"/>
<polygon fill="#000000" stroke="#000000" points="1296.3959,-167.924 1286.8037,-163.4251 1291.4968,-172.9239 1296.3959,-167.924"/>
</g>
<!-- auto_dns&#45;&gt;zone_files -->
<g id="edge39" class="edge">
<title>auto_dns&#45;&gt;zone_files</title>
<path fill="none" stroke="#000000" d="M1313.5193,-272.8042C1304.6057,-247.7775 1288.479,-202.4988 1278.0088,-173.1017"/>
<polygon fill="#000000" stroke="#000000" points="1281.2147,-171.6711 1274.5624,-163.4251 1274.6205,-174.0198 1281.2147,-171.6711"/>
</g>
<!-- le_snippets&#45;&gt;zone_files -->
<g id="edge40" class="edge">
<title>le_snippets&#45;&gt;zone_files</title>
<path fill="none" stroke="#000000" d="M1491.4762,-272.9511C1445.2167,-246.4652 1358.9483,-197.0724 1308.1935,-168.0127"/>
<polygon fill="#000000" stroke="#000000" points="1309.8691,-164.939 1299.4517,-163.0077 1306.3909,-171.0138 1309.8691,-164.939"/>
</g>
<!-- PuppetDB -->
<g id="node39" class="node">
<title>PuppetDB</title>
<path fill="none" stroke="#000000" d="M861.5,-392.7273C861.5,-394.5331 842.0026,-396 818,-396 793.9974,-396 774.5,-394.5331 774.5,-392.7273 774.5,-392.7273 774.5,-363.2727 774.5,-363.2727 774.5,-361.4669 793.9974,-360 818,-360 842.0026,-360 861.5,-361.4669 861.5,-363.2727 861.5,-363.2727 861.5,-392.7273 861.5,-392.7273"/>
<path fill="none" stroke="#000000" d="M861.5,-392.7273C861.5,-390.9214 842.0026,-389.4545 818,-389.4545 793.9974,-389.4545 774.5,-390.9214 774.5,-392.7273"/>
<text text-anchor="middle" x="818" y="-374.3" font-family="Liberaion" font-size="14.00" fill="#000000">PuppetDB</text>
</g>
<!-- puppetd&#45;&gt;puppet_agent -->
<g id="edge43" class="edge">
<title>puppetd&#45;&gt;puppet_agent</title>
<path fill="none" stroke="#000000" d="M845.0313,-563.9688C874.7391,-545.2511 922.5854,-515.1051 955.346,-494.4641"/>
<polygon fill="#000000" stroke="#000000" points="957.5636,-497.2037 964.1586,-488.9117 953.8321,-491.2812 957.5636,-497.2037"/>
<text text-anchor="middle" x="946" y="-532.8" font-family="Liberation" font-size="14.00" fill="#000000">TLSA records</text>
</g>
<!-- puppetd&#45;&gt;PuppetDB -->
<g id="edge41" class="edge">
<title>puppetd&#45;&gt;PuppetDB</title>
<path fill="none" stroke="#000000" d="M818,-552.8211C818,-514.1637 818,-445.0788 818,-406.338"/>
<polygon fill="#000000" stroke="#000000" points="814.5001,-552.9851 818,-562.9851 821.5001,-552.9851 814.5001,-552.9851"/>
<polygon fill="#000000" stroke="#000000" points="821.5001,-406.2663 818,-396.2663 814.5001,-406.2664 821.5001,-406.2663"/>
</g>
<!-- abridged -->
<g id="node41" class="node">
<title>abridged</title>
<polygon fill="none" stroke="#000000" points="718,-600 554,-600 554,-562 724,-562 724,-594 718,-600"/>
<polyline fill="none" stroke="#000000" points="718,-600 718,-594 "/>
<polyline fill="none" stroke="#000000" points="724,-594 718,-594 "/>
<text text-anchor="middle" x="639" y="-584.8" font-family="Liberaion" font-size="14.00" fill="#000000">(ud&#45;replicate omitted</text>
<text text-anchor="middle" x="639" y="-569.8" font-family="Liberaion" font-size="14.00" fill="#000000">for brievety)</text>
</g>
<!-- postfix_mail -->
<g id="node42" class="node">
<title>postfix_mail</title>
<ellipse fill="none" stroke="#000000" cx="3286" cy="-581" rx="42.4939" ry="18"/>
<text text-anchor="middle" x="3286" y="-577.3" font-family="Liberaion" font-size="14.00" fill="#000000">postfix</text>
</g>
<!-- aliases -->
<g id="node44" class="node">
<title>aliases</title>
<polygon fill="none" stroke="#000000" points="3324,-396 3094,-396 3094,-360 3324,-360 3324,-396"/>
<text text-anchor="middle" x="3209" y="-374.3" font-family="Liberaion" font-size="14.00" fill="#000000">/etc/postfix/debian aliases file</text>
</g>
<!-- postfix_mail&#45;&gt;aliases -->
<g id="edge46" class="edge">
<title>postfix_mail&#45;&gt;aliases</title>
<path fill="none" stroke="#000000" d="M3279.1668,-562.9851C3264.5915,-524.5594 3230.5882,-434.9143 3215.9286,-396.2663"/>
<text text-anchor="middle" x="3280" y="-468.3" font-family="Liberation" font-size="14.00" fill="#000000">uses</text>
</g>
<!-- udreplicate_eugeni&#45;&gt;aliases -->
<g id="edge45" class="edge">
<title>udreplicate_eugeni&#45;&gt;aliases</title>
<path fill="none" stroke="#000000" d="M3162.5259,-562.9851C3171.4255,-527.5614 3191.2609,-448.6088 3201.9129,-406.2095"/>
<polygon fill="#000000" stroke="#000000" points="3205.3688,-406.8178 3204.4109,-396.2663 3198.5797,-405.1121 3205.3688,-406.8178"/>
</g>
</g>
</svg>
